ULA_mips/wave.vcd
$date
     Apr 03, 2018       19:33:48
$end

$version
 SystemC 2.3.2-Accellera --- Apr  1 2018 14:04:02
$end

$timescale
     1 ps
$end

$scope module SystemC $end
$var wire   32  aaaaa  a [31:0]  $end
$var wire   32  aaaab  b [31:0]  $end
$var wire    3  aaaac  opcode [2:0]  $end
$var wire   32  aaaad  z [31:0]  $end
$var wire    1  aaaae  zero       $end
$upscope $end
$enddefinitions  $end

$comment
All initial values are dumped below at time 0 sec = 0 timescale units.
$end

$dumpvars
b101 aaaaa
b1010 aaaab
b0 aaaac
b1111 aaaad
0aaaae
$end

#1
b1 aaaac
b11111111111111111111111111111011 aaaad

#2
b10 aaaac
b0 aaaad
1aaaae

#3
b11 aaaac
b1111 aaaad
0aaaae

#4
b100 aaaac
b11111111111111111111111111111010 aaaad

#5
b101 aaaac
b1111 aaaad

#6
b110 aaaac
b101 aaaad

#7
b111 aaaac
b1 aaaad

#8
b1111111111111111111111111111111 aaaaa
b1110000000000100010000000010000 aaaab
b0 aaaac
b11110000000000100010000000001111 aaaad

#9
b1 aaaac
b1111111111011101111111101111 aaaad

#10
b10 aaaac
b1110000000000100010000000010000 aaaad

#11
b11 aaaac
b1111111111111111111111111111111 aaaad

#12
b100 aaaac
b10000000000000000000000000000000 aaaad

#13
b101 aaaac
b1111111111011101111111101111 aaaad

#14
b110 aaaac
b1111111111111111111111111111111 aaaad

#15
b111 aaaac
b0 aaaad
1aaaae

